Get House Price Data — ukhp_get • uklr
…
in Scotland since January 2004

in Northern Ireland since January 2005

    See also

    rdf_modifiers

    Examples

# \donttest{
# This is case sensitive
ukhp_get("england")
#> # A tibble: 691 × 3
#>    region  date       housePriceIndex
#>    <fct>   <date>               <dbl>
#>  1 england 1968-04-01             1.1
#>  2 england 1968-04-01             1.1
#>  3 england 1968-04-01             1.1
#>  4 england 1968-07-01             1.2
#>  5 england 1968-07-01             1.2
#>  6 england 1968-07-01             1.2
#>  7 england 1968-10-01             1.2
#>  8 england 1968-10-01             1.2
#>  9 england 1968-10-01             1.2
#> 10 england 1969-01-01             1.2
#> # ℹ 681 more rows

# However you can use regular expression instead of exact match
ukhp_get("england", regexp = TRUE)
#> # A tibble: 1,464 × 3
#>    region  date       housePriceIndex
#>    <fct>   <date>               <dbl>
#>  1 england 1968-04-01             1.1
#>  2 england 1968-04-01             1.1
#>  3 england 1968-04-01             1.1
#>  4 england 1968-07-01             1.2
#>  5 england 1968-07-01             1.2
#>  6 england 1968-07-01             1.2
#>  7 england 1968-10-01             1.2
#>  8 england 1968-10-01             1.2
#>  9 england 1968-10-01             1.2
#> 10 england 1969-01-01             1.2
#> # ℹ 1,454 more rows
…
ukhp_get(c("england", "wales"), item = c("salesVolume", "housePriceIndexDetached"))
#> # A tibble: 736 × 4
#>    region  date       salesVolume housePriceIndexDetached
#>    <fct>   <date>           <dbl>                   <dbl>
#>  1 england 1995-12-01       69345                    18.2
#>  2 england 1995-03-01       67025                    18.2
#>  3 england 1996-02-01       51401                    18.2
#>  4 england 1995-02-01       47880                    18.3
#>  5 england 1996-01-01       48694                    18.3
#>  6 england 1996-03-01       68453                    18.3
#>  7 england 1995-11-01       63955                    18.4
#>  8 england 1995-05-01       64192                    18.4
#>  9 england 1995-06-01       72640                    18.4
#> 10 england 1995-09-01       67251                    18.4
#> # ℹ 726 more rows
…
