Get House Price Data — ukhp_get • exuber
…
      ...
      query modifiers passed through rdf_modifiers.

    See also

    rdf_modifiers

    Examples

# \donttest{
# This is case sensitive
ukhp_get("england")
#> # A tibble: 1,245 x 3
#>    region  date       housePriceIndex
#>    <fct>   <date>               <dbl>
#>  1 england 1968-04-01            1.68
#>  2 england 1968-04-01            1.68
#>  3 england 1968-04-01            1.68
#>  4 england 1968-07-01            1.74
#>  5 england 1968-07-01            1.74
#>  6 england 1968-07-01            1.74
#>  7 england 1968-10-01            1.73
#>  8 england 1968-10-01            1.73
#>  9 england 1968-10-01            1.73
#> 10 england 1969-01-01            1.76
#> # ... with 1,235 more rows

# However you can use regular expression instead of exact match
ukhp_get("england", regexp = TRUE)
#> # A tibble: 1,245 x 3
#>    region  date       housePriceIndex
#>    <fct>   <date>               <dbl>
#>  1 england 1968-04-01            1.68
#>  2 england 1968-04-01            1.68
#>  3 england 1968-04-01            1.68
#>  4 england 1968-07-01            1.74
#>  5 england 1968-07-01            1.74
#>  6 england 1968-07-01            1.74
#>  7 england 1968-10-01            1.73
#>  8 england 1968-10-01            1.73
#>  9 england 1968-10-01            1.73
#> 10 england 1969-01-01            1.76
#> # ... with 1,235 more rows
…
ukhp_get(c("endland", "wales"), item = c("salesVolume", "housePriceIndexDetached"))
#> # A tibble: 590 x 4
#>    region            date       salesVolume housePriceIndexDetached
#>    <fct>             <date>           <dbl>                   <dbl>
#>  1 england-and-wales 1996-01-01       53652                    27.8
#>  2 england-and-wales 1995-01-01       70158                    27.8
#>  3 england-and-wales 1995-10-01       72525                    27.8
#>  4 england-and-wales 1995-01-01       50028                    28.0
#>  5 england-and-wales 1996-01-01       72070                    28  
#>  6 england-and-wales 1996-01-01       50628                    28.0
#>  7 england-and-wales 1995-04-01       66877                    28.1
#>  8 england-and-wales 1995-10-01       66925                    28.1
#>  9 england-and-wales 1995-04-01       59413                    28.2
#> 10 england-and-wales 1995-07-01       70442                    28.2
#> # ... with 580 more rows
…
